2021-10-26T15:00:26.493-0400	INFO	instance/beat.go:640	Home path: [/Users/dayany.santos/Documents/ACP2P/troubleshooting-essentials-assignment/filebeat] Config path: [/Users/dayany.santos/Documents/ACP2P/troubleshooting-essentials-assignment/filebeat] Data path: [/Users/dayany.santos/Documents/ACP2P/troubleshooting-essentials-assignment/filebeat/data] Logs path: [/Users/dayany.santos/Documents/ACP2P/troubleshooting-essentials-assignment/filebeat/logs]
2021-10-26T15:00:26.502-0400	INFO	instance/beat.go:648	Beat ID: 98e2edd8-52a6-425e-a491-4650c745a36b
2021-10-26T15:00:26.588-0400	INFO	[beat]	instance/beat.go:976	Beat info	{"system_info": {"beat": {"path": {"config": "/Users/dayany.santos/Documents/ACP2P/troubleshooting-essentials-assignment/filebeat", "data": "/Users/dayany.santos/Documents/ACP2P/troubleshooting-essentials-assignment/filebeat/data", "home": "/Users/dayany.santos/Documents/ACP2P/troubleshooting-essentials-assignment/filebeat", "logs": "/Users/dayany.santos/Documents/ACP2P/troubleshooting-essentials-assignment/filebeat/logs"}, "type": "filebeat", "uuid": "98e2edd8-52a6-425e-a491-4650c745a36b"}}}
2021-10-26T15:00:26.588-0400	INFO	[beat]	instance/beat.go:985	Build info	{"system_info": {"build": {"commit": "7aab6a9659749802201db8020c4f04b74cec2169", "libbeat": "7.9.3", "time": "2020-10-16T09:16:15.000Z", "version": "7.9.3"}}}
2021-10-26T15:00:26.588-0400	INFO	[beat]	instance/beat.go:988	Go runtime info	{"system_info": {"go": {"os":"darwin","arch":"amd64","max_procs":8,"version":"go1.14.7"}}}
2021-10-26T15:00:26.589-0400	INFO	[beat]	instance/beat.go:992	Host info	{"system_info": {"host": {"architecture":"x86_64","boot_time":"2021-10-26T10:05:30.949249-04:00","name":"dayanysantos-MacBook-Pro","ip":["127.0.0.1/8","::1/128","fe80::1/64","fe80::aede:48ff:fe00:1122/64","fe80::1e:7e9c:ca40:dac0/64","2804:7f3:6880:4bbc:c2b:8bc2:9793:8ee4/64","2804:7f3:6880:4bbc:5865:6a78:22ab:fff2/64","192.168.15.3/24","fe80::bcfc:f2ff:fea2:8290/64","fe80::bcfc:f2ff:fea2:8290/64","fe80::f979:6c08:89b9:2121/64","fe80::e2e2:f8d1:3d85:38dd/64"],"kernel_version":"20.6.0","mac":["ac:de:48:00:11:22","b2:9c:4a:d1:be:3a","90:9c:4a:d1:be:3a","be:fc:f2:a2:82:90","be:fc:f2:a2:82:90","ee:49:dd:c4:00:01","ee:49:dd:c4:00:00","ee:49:dd:c4:00:04","ee:49:dd:c4:00:05","00:e0:4c:68:e2:52","ee:49:dd:c4:00:04"],"os":{"family":"darwin","platform":"darwin","name":"Mac OS X","version":"10.16","major":10,"minor":16,"patch":0,"build":"20G165"},"timezone":"-04","timezone_offset_sec":-14400,"id":"FBB8FE94-5AF9-5DD5-9EC5-17A7690F7C20"}}}
2021-10-26T15:00:26.590-0400	INFO	[beat]	instance/beat.go:1021	Process info	{"system_info": {"process": {"cwd": "/Users/dayany.santos/Documents/ACP2P/troubleshooting-essentials-assignment/filebeat", "exe": "./filebeat", "name": "filebeat", "pid": 8647, "ppid": 1591, "start_time": "2021-10-26T15:00:26.416-0400"}}}
2021-10-26T15:00:26.590-0400	INFO	instance/beat.go:299	Setup Beat: filebeat; Version: 7.9.3
2021-10-26T15:00:26.590-0400	INFO	[index-management]	idxmgmt/std.go:184	Set output.elasticsearch.index to 'filebeat-7.9.3' as ILM is enabled.
2021-10-26T15:00:26.590-0400	INFO	eslegclient/connection.go:99	elasticsearch url: http://localhost:9200
2021-10-26T15:00:26.590-0400	INFO	[publisher]	pipeline/module.go:113	Beat name: dayanysantos-MacBook-Pro
2021-10-26T15:00:26.591-0400	INFO	eslegclient/connection.go:99	elasticsearch url: http://localhost:9200
2021-10-26T15:00:26.596-0400	INFO	[esclientleg]	eslegclient/connection.go:314	Attempting to connect to Elasticsearch version 7.9.2
2021-10-26T15:00:26.613-0400	INFO	[index-management]	idxmgmt/std.go:261	Auto ILM enable success.
2021-10-26T15:00:26.615-0400	INFO	[index-management.ilm]	ilm/std.go:139	do not generate ilm policy: exists=true, overwrite=false
2021-10-26T15:00:26.615-0400	INFO	[index-management]	idxmgmt/std.go:274	ILM policy successfully loaded.
2021-10-26T15:00:26.615-0400	INFO	[index-management]	idxmgmt/std.go:407	Set setup.template.name to '{filebeat-7.9.3 {now/d}-000001}' as ILM is enabled.
2021-10-26T15:00:26.615-0400	INFO	[index-management]	idxmgmt/std.go:412	Set setup.template.pattern to 'filebeat-7.9.3-*' as ILM is enabled.
2021-10-26T15:00:26.615-0400	INFO	[index-management]	idxmgmt/std.go:446	Set settings.index.lifecycle.rollover_alias in template to {filebeat-7.9.3 {now/d}-000001} as ILM is enabled.
2021-10-26T15:00:26.615-0400	INFO	[index-management]	idxmgmt/std.go:450	Set settings.index.lifecycle.name in template to {filebeat {"policy":{"phases":{"hot":{"actions":{"rollover":{"max_age":"30d","max_size":"50gb"}}}}}}} as ILM is enabled.
2021-10-26T15:00:26.618-0400	INFO	template/load.go:169	Existing template will be overwritten, as overwrite is enabled.
2021-10-26T15:00:27.303-0400	INFO	template/load.go:109	Try loading template filebeat-7.9.3 to Elasticsearch
2021-10-26T15:00:27.470-0400	INFO	template/load.go:101	template with name 'filebeat-7.9.3' loaded.
2021-10-26T15:00:27.470-0400	INFO	[index-management]	idxmgmt/std.go:298	Loaded index template.
2021-10-26T15:00:27.473-0400	INFO	[index-management]	idxmgmt/std.go:309	Write alias successfully generated.
2021-10-26T15:00:27.473-0400	INFO	kibana/client.go:119	Kibana url: http://localhost:5601
2021-10-26T15:00:28.351-0400	INFO	kibana/client.go:119	Kibana url: http://localhost:5601
2021-10-26T15:00:29.505-0400	INFO	[add_cloud_metadata]	add_cloud_metadata/add_cloud_metadata.go:89	add_cloud_metadata: hosting provider type not detected.
2021-10-26T15:01:36.042-0400	INFO	instance/beat.go:810	Kibana dashboards successfully loaded.
2021-10-26T15:01:36.042-0400	WARN	[cfgwarn]	instance/beat.go:551	DEPRECATED: Setting up ML using Filebeat is going to be removed. Please use the ML app to setup jobs. Will be removed in version: 8.0.0
2021-10-26T15:01:36.042-0400	INFO	eslegclient/connection.go:99	elasticsearch url: http://localhost:9200
2021-10-26T15:01:36.047-0400	INFO	[esclientleg]	eslegclient/connection.go:314	Attempting to connect to Elasticsearch version 7.9.2
2021-10-26T15:01:36.047-0400	INFO	kibana/client.go:119	Kibana url: http://localhost:5601
2021-10-26T15:01:36.073-0400	WARN	fileset/modules.go:421	X-Pack Machine Learning is not enabled
2021-10-26T15:01:36.092-0400	WARN	fileset/modules.go:421	X-Pack Machine Learning is not enabled
2021-10-26T15:01:36.110-0400	WARN	fileset/modules.go:421	X-Pack Machine Learning is not enabled
2021-10-26T15:01:36.110-0400	INFO	eslegclient/connection.go:99	elasticsearch url: http://localhost:9200
2021-10-26T15:01:36.114-0400	INFO	[esclientleg]	eslegclient/connection.go:314	Attempting to connect to Elasticsearch version 7.9.2
2021-10-26T15:01:36.116-0400	INFO	eslegclient/connection.go:99	elasticsearch url: http://localhost:9200
2021-10-26T15:01:36.121-0400	INFO	[esclientleg]	eslegclient/connection.go:314	Attempting to connect to Elasticsearch version 7.9.2
2021-10-26T15:01:36.148-0400	INFO	fileset/pipelines.go:139	Elasticsearch pipeline with ID 'filebeat-7.9.3-elasticsearch-audit-pipeline' loaded
2021-10-26T15:01:36.177-0400	INFO	fileset/pipelines.go:139	Elasticsearch pipeline with ID 'filebeat-7.9.3-elasticsearch-audit-pipeline-json' loaded
2021-10-26T15:01:36.201-0400	INFO	fileset/pipelines.go:139	Elasticsearch pipeline with ID 'filebeat-7.9.3-elasticsearch-audit-pipeline-plaintext' loaded
2021-10-26T15:01:36.228-0400	INFO	fileset/pipelines.go:139	Elasticsearch pipeline with ID 'filebeat-7.9.3-elasticsearch-deprecation-pipeline' loaded
2021-10-26T15:01:36.255-0400	INFO	fileset/pipelines.go:139	Elasticsearch pipeline with ID 'filebeat-7.9.3-elasticsearch-deprecation-pipeline-plaintext' loaded
2021-10-26T15:01:36.283-0400	INFO	fileset/pipelines.go:139	Elasticsearch pipeline with ID 'filebeat-7.9.3-elasticsearch-deprecation-pipeline-json' loaded
2021-10-26T15:01:36.316-0400	INFO	fileset/pipelines.go:139	Elasticsearch pipeline with ID 'filebeat-7.9.3-elasticsearch-gc-pipeline' loaded
2021-10-26T15:01:36.345-0400	INFO	fileset/pipelines.go:139	Elasticsearch pipeline with ID 'filebeat-7.9.3-elasticsearch-server-pipeline' loaded
2021-10-26T15:01:36.373-0400	INFO	fileset/pipelines.go:139	Elasticsearch pipeline with ID 'filebeat-7.9.3-elasticsearch-server-pipeline-plaintext' loaded
2021-10-26T15:01:36.400-0400	INFO	fileset/pipelines.go:139	Elasticsearch pipeline with ID 'filebeat-7.9.3-elasticsearch-server-pipeline-json' loaded
2021-10-26T15:01:36.428-0400	INFO	fileset/pipelines.go:139	Elasticsearch pipeline with ID 'filebeat-7.9.3-elasticsearch-slowlog-pipeline' loaded
2021-10-26T15:01:36.455-0400	INFO	fileset/pipelines.go:139	Elasticsearch pipeline with ID 'filebeat-7.9.3-elasticsearch-slowlog-pipeline-plaintext' loaded
2021-10-26T15:01:36.482-0400	INFO	fileset/pipelines.go:139	Elasticsearch pipeline with ID 'filebeat-7.9.3-elasticsearch-slowlog-pipeline-json' loaded
2021-10-26T15:01:36.483-0400	INFO	eslegclient/connection.go:99	elasticsearch url: http://localhost:9200
2021-10-26T15:01:36.487-0400	INFO	[esclientleg]	eslegclient/connection.go:314	Attempting to connect to Elasticsearch version 7.9.2
2021-10-26T15:01:36.525-0400	INFO	fileset/pipelines.go:139	Elasticsearch pipeline with ID 'filebeat-7.9.3-system-auth-pipeline' loaded
2021-10-26T15:01:36.554-0400	INFO	fileset/pipelines.go:139	Elasticsearch pipeline with ID 'filebeat-7.9.3-system-syslog-pipeline' loaded
2021-10-26T15:01:36.554-0400	INFO	cfgfile/reload.go:262	Loading of config files completed.
2021-10-26T15:01:36.554-0400	INFO	[load]	cfgfile/list.go:124	Stopping 2 runners ...
