2021-10-26T12:00:43.382-0400	INFO	instance/beat.go:640	Home path: [/Users/dayany.santos/Documents/ACP2P/troubleshooting-essentials-assignment/filebeat] Config path: [/Users/dayany.santos/Documents/ACP2P/troubleshooting-essentials-assignment/filebeat] Data path: [/Users/dayany.santos/Documents/ACP2P/troubleshooting-essentials-assignment/filebeat/data] Logs path: [/Users/dayany.santos/Documents/ACP2P/troubleshooting-essentials-assignment/filebeat/logs]
2021-10-26T12:00:43.386-0400	INFO	instance/beat.go:648	Beat ID: 98e2edd8-52a6-425e-a491-4650c745a36b
2021-10-26T12:00:43.417-0400	INFO	[beat]	instance/beat.go:976	Beat info	{"system_info": {"beat": {"path": {"config": "/Users/dayany.santos/Documents/ACP2P/troubleshooting-essentials-assignment/filebeat", "data": "/Users/dayany.santos/Documents/ACP2P/troubleshooting-essentials-assignment/filebeat/data", "home": "/Users/dayany.santos/Documents/ACP2P/troubleshooting-essentials-assignment/filebeat", "logs": "/Users/dayany.santos/Documents/ACP2P/troubleshooting-essentials-assignment/filebeat/logs"}, "type": "filebeat", "uuid": "98e2edd8-52a6-425e-a491-4650c745a36b"}}}
2021-10-26T12:00:43.417-0400	INFO	[beat]	instance/beat.go:985	Build info	{"system_info": {"build": {"commit": "7aab6a9659749802201db8020c4f04b74cec2169", "libbeat": "7.9.3", "time": "2020-10-16T09:16:15.000Z", "version": "7.9.3"}}}
2021-10-26T12:00:43.417-0400	INFO	[beat]	instance/beat.go:988	Go runtime info	{"system_info": {"go": {"os":"darwin","arch":"amd64","max_procs":8,"version":"go1.14.7"}}}
2021-10-26T12:00:43.418-0400	INFO	[beat]	instance/beat.go:992	Host info	{"system_info": {"host": {"architecture":"x86_64","boot_time":"2021-10-26T10:05:30.350332-04:00","name":"dayanysantos-MacBook-Pro","ip":["127.0.0.1/8","::1/128","fe80::1/64","fe80::aede:48ff:fe00:1122/64","fe80::1e:7e9c:ca40:dac0/64","2804:7f3:6880:4bbc:c2b:8bc2:9793:8ee4/64","2804:7f3:6880:4bbc:5865:6a78:22ab:fff2/64","192.168.15.3/24","fe80::bcfc:f2ff:fea2:8290/64","fe80::bcfc:f2ff:fea2:8290/64","fe80::f979:6c08:89b9:2121/64","fe80::e2e2:f8d1:3d85:38dd/64"],"kernel_version":"20.6.0","mac":["ac:de:48:00:11:22","b2:9c:4a:d1:be:3a","90:9c:4a:d1:be:3a","be:fc:f2:a2:82:90","be:fc:f2:a2:82:90","ee:49:dd:c4:00:01","ee:49:dd:c4:00:00","ee:49:dd:c4:00:04","ee:49:dd:c4:00:05","00:e0:4c:68:e2:52","ee:49:dd:c4:00:04"],"os":{"family":"darwin","platform":"darwin","name":"Mac OS X","version":"10.16","major":10,"minor":16,"patch":0,"build":"20G165"},"timezone":"-04","timezone_offset_sec":-14400,"id":"FBB8FE94-5AF9-5DD5-9EC5-17A7690F7C20"}}}
2021-10-26T12:00:43.418-0400	INFO	[beat]	instance/beat.go:1021	Process info	{"system_info": {"process": {"cwd": "/Users/dayany.santos/Documents/ACP2P/troubleshooting-essentials-assignment/filebeat", "exe": "./filebeat", "name": "filebeat", "pid": 4746, "ppid": 1591, "start_time": "2021-10-26T12:00:43.315-0400"}}}
2021-10-26T12:00:43.418-0400	INFO	instance/beat.go:299	Setup Beat: filebeat; Version: 7.9.3
2021-10-26T12:00:43.418-0400	INFO	[index-management]	idxmgmt/std.go:184	Set output.elasticsearch.index to 'filebeat-7.9.3' as ILM is enabled.
2021-10-26T12:00:43.418-0400	INFO	eslegclient/connection.go:99	elasticsearch url: https://254638833c2e4aad8cf3974bfe3110d8.eastus2.azure.elastic-cloud.com:443
2021-10-26T12:00:43.419-0400	INFO	[publisher]	pipeline/module.go:113	Beat name: dayanysantos-MacBook-Pro
2021-10-26T12:00:43.420-0400	INFO	eslegclient/connection.go:99	elasticsearch url: https://254638833c2e4aad8cf3974bfe3110d8.eastus2.azure.elastic-cloud.com:443
2021-10-26T12:00:44.527-0400	ERROR	[esclientleg]	eslegclient/connection.go:261	error connecting to Elasticsearch at https://254638833c2e4aad8cf3974bfe3110d8.eastus2.azure.elastic-cloud.com:443: 401 Unauthorized: {"error":{"root_cause":[{"type":"security_exception","reason":"unable to authenticate user [ elastic] for REST request [/]","header":{"WWW-Authenticate":["Basic realm=\"security\" charset=\"UTF-8\"","Bearer realm=\"security\"","ApiKey"]}}],"type":"security_exception","reason":"unable to authenticate user [ elastic] for REST request [/]","header":{"WWW-Authenticate":["Basic realm=\"security\" charset=\"UTF-8\"","Bearer realm=\"security\"","ApiKey"]}},"status":401}
2021-10-26T12:00:44.527-0400	ERROR	instance/beat.go:951	Exiting: couldn't connect to any of the configured Elasticsearch hosts. Errors: [error connecting to Elasticsearch at https://254638833c2e4aad8cf3974bfe3110d8.eastus2.azure.elastic-cloud.com:443: 401 Unauthorized: {"error":{"root_cause":[{"type":"security_exception","reason":"unable to authenticate user [ elastic] for REST request [/]","header":{"WWW-Authenticate":["Basic realm=\"security\" charset=\"UTF-8\"","Bearer realm=\"security\"","ApiKey"]}}],"type":"security_exception","reason":"unable to authenticate user [ elastic] for REST request [/]","header":{"WWW-Authenticate":["Basic realm=\"security\" charset=\"UTF-8\"","Bearer realm=\"security\"","ApiKey"]}},"status":401}]
