{
    "objects": [
        {
            "attributes": {
                "description": "Overview of Microsoft DNS activity.",
                "hits": 0,
                "kibanaSavedObjectMeta": {
                    "searchSourceJSON": "{\"filter\": [], \"version\": true, \"highlightAll\": true, \"query\": {\"query\": \"*\", \"language\": \"lucene\"}}"
                },
                "optionsJSON": "{\"darkTheme\": false}",
                "panelsJSON": "[{\"embeddableConfig\": {}, \"version\": \"7.3.0\", \"panelRefName\": \"panel_0\", \"panelIndex\": \"1\", \"gridData\": {\"w\": 8, \"y\": 4, \"h\": 8, \"i\": \"1\", \"x\": 40}}, {\"embeddableConfig\": {\"vis\": {\"defaultColors\": {\"0 - 100\": \"rgb(0,104,55)\"}}}, \"version\": \"7.3.0\", \"panelRefName\": \"panel_1\", \"panelIndex\": \"3\", \"gridData\": {\"w\": 40, \"y\": 4, \"h\": 8, \"i\": \"3\", \"x\": 0}}, {\"embeddableConfig\": {\"vis\": {\"legendOpen\": false, \"defaultColors\": {\"162k - 180k\": \"rgb(8,74,145)\", \"90k - 108k\": \"rgb(107,174,214)\", \"54k - 72k\": \"rgb(182,212,233)\", \"0 - 18k\": \"rgb(247,251,255)\", \"144k - 162k\": \"rgb(23,100,171)\", \"126k - 144k\": \"rgb(46,126,188)\", \"36k - 54k\": \"rgb(208,225,242)\", \"72k - 90k\": \"rgb(148,196,223)\", \"108k - 126k\": \"rgb(74,152,201)\", \"18k - 36k\": \"rgb(227,238,249)\"}}}, \"version\": \"7.3.0\", \"panelRefName\": \"panel_2\", \"panelIndex\": \"5\", \"gridData\": {\"w\": 24, \"y\": 32, \"h\": 16, \"i\": \"5\", \"x\": 0}}, {\"embeddableConfig\": {}, \"version\": \"7.3.0\", \"panelRefName\": \"panel_3\", \"panelIndex\": \"6\", \"gridData\": {\"w\": 48, \"y\": 48, \"h\": 8, \"i\": \"6\", \"x\": 0}}, {\"embeddableConfig\": {}, \"version\": \"7.3.0\", \"panelRefName\": \"panel_4\", \"panelIndex\": \"7\", \"gridData\": {\"w\": 24, \"y\": 32, \"h\": 16, \"i\": \"7\", \"x\": 24}}, {\"embeddableConfig\": {}, \"version\": \"7.3.0\", \"panelRefName\": \"panel_5\", \"panelIndex\": \"9\", \"gridData\": {\"w\": 48, \"y\": 12, \"h\": 8, \"i\": \"9\", \"x\": 0}}, {\"embeddableConfig\": {\"vis\": {\"params\": {\"sort\": {\"direction\": null, \"columnIndex\": null}}}}, \"version\": \"7.3.0\", \"panelRefName\": \"panel_6\", \"panelIndex\": \"11\", \"gridData\": {\"w\": 24, \"y\": 56, \"h\": 16, \"i\": \"11\", \"x\": 24}}, {\"embeddableConfig\": {}, \"version\": \"7.3.0\", \"panelRefName\": \"panel_7\", \"panelIndex\": \"12\", \"gridData\": {\"w\": 48, \"y\": 0, \"h\": 4, \"i\": \"12\", \"x\": 0}}, {\"embeddableConfig\": {\"vis\": {\"params\": {\"sort\": {\"direction\": null, \"columnIndex\": null}}}}, \"version\": \"7.3.0\", \"panelRefName\": \"panel_8\", \"panelIndex\": \"13\", \"gridData\": {\"w\": 24, \"y\": 56, \"h\": 16, \"i\": \"13\", \"x\": 0}}, {\"embeddableConfig\": {}, \"version\": \"7.3.0\", \"panelRefName\": \"panel_9\", \"panelIndex\": \"14\", \"gridData\": {\"w\": 24, \"y\": 20, \"h\": 12, \"i\": \"14\", \"x\": 0}}, {\"embeddableConfig\": {}, \"version\": \"7.3.0\", \"panelRefName\": \"panel_10\", \"panelIndex\": \"15\", \"gridData\": {\"w\": 24, \"y\": 20, \"h\": 12, \"i\": \"15\", \"x\": 24}}, {\"embeddableConfig\": {\"mapCenter\": [12.211180191503997, 0], \"mapZoom\": 1}, \"version\": \"7.3.0\", \"panelRefName\": \"panel_11\", \"panelIndex\": \"16\", \"gridData\": {\"w\": 24, \"y\": 72, \"h\": 12, \"i\": \"16\", \"x\": 24}}, {\"embeddableConfig\": {\"mapCenter\": [-0.17578097424708533, 0], \"mapZoom\": 1}, \"version\": \"7.3.0\", \"panelRefName\": \"panel_12\", \"panelIndex\": \"17\", \"gridData\": {\"w\": 24, \"y\": 72, \"h\": 12, \"i\": \"17\", \"x\": 0}}]",
                "refreshInterval": {
                    "display": "Off",
                    "pause": false,
                    "value": 0
                },
                "timeFrom": "now-24h",
                "timeRestore": true,
                "timeTo": "now",
                "title": "[Filebeat CEF] Microsoft DNS Overview",
                "version": 1
            },
            "id": "56428e01-0c47-4770-8ba4-9345a029ea41",
            "migrationVersion": {
                "dashboard": "7.3.0"
            },
            "references": [
                {
                    "id": "7e2b0659-0760-4182-8b29-3ee69f26bc6f",
                    "name": "panel_0",
                    "type": "visualization"
                },
                {
                    "id": "249e2737-b41f-4115-b303-88bc9d279655",
                    "name": "panel_1",
                    "type": "visualization"
                },
                {
                    "id": "566d8b4e-ec5c-4b8b-bd68-3cc9cb236110",
                    "name": "panel_2",
                    "type": "visualization"
                },
                {
                    "id": "759e8dc3-0fdb-4cb6-ba47-87a2e2ff8df3",
                    "name": "panel_3",
                    "type": "visualization"
                },
                {
                    "id": "fcf798a8-db8f-4492-827b-8fa7581108a9",
                    "name": "panel_4",
                    "type": "visualization"
                },
                {
                    "id": "f0e60404-ddf4-4b46-8e45-e28c4fb6d60d",
                    "name": "panel_5",
                    "type": "visualization"
                },
                {
                    "id": "1b9cc5b7-7747-49de-96b1-a4bc7f675716",
                    "name": "panel_6",
                    "type": "visualization"
                },
                {
                    "id": "677891a1-90c4-4273-b126-f0e54689bd76",
                    "name": "panel_7",
                    "type": "visualization"
                },
                {
                    "id": "26a65f68-d7a6-4b47-befc-c5a6819bb91b",
                    "name": "panel_8",
                    "type": "visualization"
                },
                {
                    "id": "16aef3e9-e33b-4bab-b32f-d8c5b1263ac0",
                    "name": "panel_9",
                    "type": "visualization"
                },
                {
                    "id": "f3c573ad-2c16-4de5-9ec3-0a47141d4fa0",
                    "name": "panel_10",
                    "type": "visualization"
                },
                {
                    "id": "1b521f56-8089-433f-88f7-56aba867e07d",
                    "name": "panel_11",
                    "type": "visualization"
                },
                {
                    "id": "581a296e-e34a-48f1-93e4-fc4bdadfc68d",
                    "name": "panel_12",
                    "type": "visualization"
                }
            ],
            "type": "dashboard",
            "updated_at": "2019-10-25T16:30:04.348Z",
            "version": "WzEyOTIsMV0="
        },
        {
            "attributes": {
                "description": "",
                "kibanaSavedObjectMeta": {
                    "searchSourceJSON": "{\"filter\": [], \"query\": {\"query_string\": {\"query\": \"*\"}}}"
                },
                "title": "DNS - Event Throughput [Filebeat CEF]",
                "uiStateJSON": "{}",
                "version": 1,
                "visState": "{\"type\": \"metrics\", \"listeners\": {}, \"title\": \"DNS - Event Throughput [Filebeat CEF]\", \"params\": {\"filter\": {\"query\": \"cef.device.product:\\\"DNS Trace Log\\\"\", \"language\": \"lucene\"}, \"background_color_rules\": [{\"id\": \"3eadd451-5033-423f-88e3-814cc5e50b50\"}], \"id\": \"73968651-c41e-473e-a153-a025f49d1a1b\", \"bar_color_rules\": [{\"id\": \"fa374805-d1ca-4261-b723-9b482a7dd43a\"}], \"show_legend\": 1, \"gauge_max\": \"\", \"axis_position\": \"left\", \"interval\": \"auto\", \"index_pattern\": \"filebeat-*\", \"gauge_width\": 10, \"series\": [{\"id\": \"90d7621e-3265-4fe8-8882-8df9605ea659\", \"fill\": 0.5, \"line_width\": 1, \"point_size\": 1, \"color\": \"rgba(0,156,224,1)\", \"axis_position\": \"right\", \"formatter\": \"number\", \"label\": \"Event Throughput\", \"chart_type\": \"line\", \"split_mode\": \"everything\", \"stacked\": \"none\", \"seperate_axis\": 0, \"value_template\": \"{{value}}  / s\", \"metrics\": [{\"type\": \"count\", \"id\": \"ba1830b9-9ce3-4bf1-8f4d-f7478b7f1bba\"}, {\"type\": \"cumulative_sum\", \"field\": \"ba1830b9-9ce3-4bf1-8f4d-f7478b7f1bba\", \"id\": \"cf3e6b1c-4136-4868-913e-0e82d88a8c9c\"}, {\"type\": \"derivative\", \"field\": \"cf3e6b1c-4136-4868-913e-0e82d88a8c9c\", \"id\": \"0e407985-9ae4-4c1f-bb0e-16cd9bef7611\", \"unit\": \"1s\"}, {\"window\": \"10\", \"period\": 1, \"beta\": 0.1, \"model_type\": \"simple\", \"alpha\": 0.3, \"multiplicative\": false, \"gamma\": 0.3, \"type\": \"moving_average\", \"field\": \"0e407985-9ae4-4c1f-bb0e-16cd9bef7611\", \"id\": \"48026f85-83c8-40e6-aff4-71f3bd6c77c9\"}]}], \"axis_formatter\": \"number\", \"gauge_color_rules\": [{\"gauge\": null, \"value\": 0, \"id\": \"4d957654-cc7e-4ef3-8b29-61c0aeadd51a\"}], \"time_field\": \"@timestamp\", \"gauge_inner_width\": 10, \"type\": \"gauge\", \"gauge_style\": \"half\"}, \"aggs\": []}"
            },
            "id": "7e2b0659-0760-4182-8b29-3ee69f26bc6f",
            "migrationVersion": {
                "visualization": "7.3.1"
            },
            "references": [],
            "type": "visualization",
            "updated_at": "2019-10-25T16:30:04.348Z",
            "version": "WzEyOTMsMV0="
        },
        {
            "attributes": {
                "description": "",
                "kibanaSavedObjectMeta": {
                    "searchSourceJSON": "{\"filter\": []}"
                },
                "savedSearchRefName": "search_0",
                "title": "DNS Metrics Overview [Filebeat CEF]",
                "uiStateJSON": "{\"vis\": {\"defaultColors\": {\"0 - 100\": \"rgb(0,104,55)\"}}}",
                "version": 1,
                "visState": "{\"type\": \"metric\", \"listeners\": {}, \"title\": \"DNS Metrics Overview [Filebeat CEF]\", \"params\": {\"type\": \"gauge\", \"addTooltip\": true, \"gauge\": {\"useRange\": false, \"verticalSplit\": false, \"percentageMode\": false, \"type\": \"simple\", \"gaugeType\": \"Metric\", \"colorSchema\": \"Green to Red\", \"autoExtend\": false, \"gaugeStyle\": \"Full\", \"orientation\": \"vertical\", \"labels\": {\"show\": true, \"color\": \"black\"}, \"scale\": {\"labels\": false, \"show\": false, \"width\": 2, \"color\": \"#333\"}, \"backStyle\": \"Full\", \"style\": {\"subText\": \"\", \"bgColor\": false, \"bgFill\": \"#000\", \"labelColor\": false, \"fontSize\": \"32\"}, \"gaugeColorMode\": \"None\", \"colorsRange\": [{\"to\": 100, \"from\": 0}], \"invertColors\": false}, \"addLegend\": false}, \"aggs\": [{\"enabled\": true, \"schema\": \"metric\", \"id\": \"5\", \"params\": {\"customLabel\": \"Event Count\"}, \"type\": \"count\"}, {\"enabled\": true, \"schema\": \"metric\", \"id\": \"2\", \"params\": {\"field\": \"cef.extensions.deviceCustomString1\", \"customLabel\": \"Threads\"}, \"type\": \"cardinality\"}, {\"enabled\": true, \"schema\": \"metric\", \"id\": \"3\", \"params\": {\"field\": \"cef.extensions.deviceCustomString2\", \"customLabel\": \"OpCodes\"}, \"type\": \"cardinality\"}, {\"enabled\": true, \"schema\": \"metric\", \"id\": \"4\", \"params\": {\"field\": \"cef.device.event_class_id\", \"customLabel\": \"Activity Types\"}, \"type\": \"cardinality\"}]}"
            },
            "id": "249e2737-b41f-4115-b303-88bc9d279655",
            "migrationVersion": {
                "visualization": "7.3.1"
            },
            "references": [
                {
                    "id": "f85a3444-8a43-4e46-b872-4e44bc25d0f3",
                    "name": "search_0",
                    "type": "search"
                }
            ],
            "type": "visualization",
            "updated_at": "2019-10-25T16:30:04.348Z",
            "version": "WzEyOTQsMV0="
        },
        {
            "attributes": {
                "description": "",
                "kibanaSavedObjectMeta": {
                    "searchSourceJSON": "{\"filter\": []}"
                },
                "savedSearchRefName": "search_0",
                "title": "Top Destinations by Traffic Size [Filebeat CEF]",
                "uiStateJSON": "{\"vis\": {\"defaultColors\": {\"162k - 180k\": \"rgb(8,74,145)\", \"90k - 108k\": \"rgb(107,174,214)\", \"54k - 72k\": \"rgb(182,212,233)\", \"0 - 18k\": \"rgb(247,251,255)\", \"144k - 162k\": \"rgb(23,100,171)\", \"126k - 144k\": \"rgb(46,126,188)\", \"36k - 54k\": \"rgb(208,225,242)\", \"72k - 90k\": \"rgb(148,196,223)\", \"108k - 126k\": \"rgb(74,152,201)\", \"18k - 36k\": \"rgb(227,238,249)\"}}}",
                "version": 1,
                "visState": "{\"type\": \"heatmap\", \"listeners\": {}, \"title\": \"Top Destinations by Traffic Size [Filebeat CEF]\", \"params\": {\"addTooltip\": true, \"colorSchema\": \"Blues\", \"percentageMode\": false, \"colorsRange\": [{\"to\": null, \"from\": 0}], \"addLegend\": true, \"setColorRange\": false, \"colorsNumber\": 10, \"enableHover\": true, \"valueAxes\": [{\"type\": \"value\", \"labels\": {\"rotate\": 0, \"show\": false, \"color\": \"#555\"}, \"id\": \"ValueAxis-1\", \"scale\": {\"defaultYExtents\": false, \"type\": \"linear\"}, \"show\": false}], \"times\": [], \"legendPosition\": \"top\", \"invertColors\": false}, \"aggs\": [{\"enabled\": true, \"schema\": \"metric\", \"id\": \"1\", \"params\": {\"field\": \"source.bytes\", \"customLabel\": \"Bytes\"}, \"type\": \"sum\"}, {\"enabled\": true, \"schema\": \"segment\", \"id\": \"2\", \"params\": {\"filters\": [{\"label\": \"Inbound\", \"input\": {\"query\": \"deviceDirection:\\\"0\\\"\", \"language\": \"lucene\"}}, {\"label\": \"Outbound\", \"input\": {\"query\": \"deviceDirection:\\\"1\\\"\", \"language\": \"lucene\"}}]}, \"type\": \"filters\"}, {\"enabled\": true, \"schema\": \"group\", \"id\": \"3\", \"params\": {\"order\": \"desc\", \"field\": \"destination.domain\", \"size\": 10, \"orderBy\": \"1\"}, \"type\": \"terms\"}]}"
            },
            "id": "566d8b4e-ec5c-4b8b-bd68-3cc9cb236110",
            "migrationVersion": {
                "visualization": "7.3.1"
            },
            "references": [
                {
                    "id": "f85a3444-8a43-4e46-b872-4e44bc25d0f3",
                    "name": "search_0",
                    "type": "search"
                }
            ],
            "type": "visualization",
            "updated_at": "2019-10-25T16:30:04.348Z",
            "version": "WzEyOTUsMV0="
        },
        {
            "attributes": {
                "description": "",
                "kibanaSavedObjectMeta": {
                    "searchSourceJSON": "{\"filter\": []}"
                },
                "savedSearchRefName": "search_0",
                "title": "Top 10 Event Types [Filebeat CEF]",
                "uiStateJSON": "{}",
                "version": 1,
                "visState": "{\"type\": \"tagcloud\", \"listeners\": {}, \"title\": \"Top 10 Event Types [Filebeat CEF]\", \"params\": {\"orientation\": \"single\", \"scale\": \"square root\", \"minFontSize\": 12, \"maxFontSize\": 50}, \"aggs\": [{\"enabled\": true, \"schema\": \"metric\", \"id\": \"1\", \"params\": {}, \"type\": \"count\"}, {\"enabled\": true, \"schema\": \"segment\", \"id\": \"2\", \"params\": {\"order\": \"desc\", \"field\": \"cef.device.event_class_id\", \"size\": 10, \"orderBy\": \"1\"}, \"type\": \"terms\"}]}"
            },
            "id": "759e8dc3-0fdb-4cb6-ba47-87a2e2ff8df3",
            "migrationVersion": {
                "visualization": "7.3.1"
            },
            "references": [
                {
                    "id": "f85a3444-8a43-4e46-b872-4e44bc25d0f3",
                    "name": "search_0",
                    "type": "search"
                }
            ],
            "type": "visualization",
            "updated_at": "2019-10-25T16:30:04.348Z",
            "version": "WzEyOTYsMV0="
        },
        {
            "attributes": {
                "description": "",
                "kibanaSavedObjectMeta": {
                    "searchSourceJSON": "{\"filter\": []}"
                },
                "savedSearchRefName": "search_0",
                "title": "Event Types by Size [Filebeat CEF]",
                "uiStateJSON": "{\"vis\": {\"colors\": {\"Count\": \"#64B0C8\", \"Total (Bytes)\": \"#E24D42\"}}}",
                "version": 1,
                "visState": "{\"type\": \"histogram\", \"listeners\": {}, \"title\": \"Event Types by Size [Filebeat CEF]\", \"params\": {\"valueAxes\": [{\"labels\": {\"filter\": false, \"rotate\": 0, \"truncate\": 100, \"show\": true}, \"id\": \"ValueAxis-1\", \"name\": \"LeftAxis-1\", \"show\": true, \"style\": {}, \"type\": \"value\", \"scale\": {\"type\": \"square root\", \"mode\": \"normal\"}, \"title\": {\"text\": \"Count\"}, \"position\": \"left\"}, {\"labels\": {\"filter\": false, \"rotate\": 0, \"truncate\": 100, \"show\": true}, \"id\": \"ValueAxis-2\", \"name\": \"RightAxis-1\", \"show\": true, \"style\": {}, \"type\": \"value\", \"scale\": {\"type\": \"square root\", \"mode\": \"normal\"}, \"title\": {\"text\": \"Total (Bytes)\"}, \"position\": \"right\"}], \"addTooltip\": true, \"addLegend\": true, \"addTimeMarker\": false, \"seriesParams\": [{\"data\": {\"id\": \"1\", \"label\": \"Count\"}, \"drawLinesBetweenPoints\": true, \"type\": \"histogram\", \"valueAxis\": \"ValueAxis-1\", \"show\": \"true\", \"showCircles\": true, \"mode\": \"normal\"}, {\"data\": {\"id\": \"3\", \"label\": \"Total (Bytes)\"}, \"lineWidth\": 3, \"drawLinesBetweenPoints\": true, \"type\": \"line\", \"valueAxis\": \"ValueAxis-2\", \"show\": true, \"showCircles\": false, \"mode\": \"normal\", \"interpolate\": \"linear\"}], \"grid\": {\"style\": {\"color\": \"#eee\"}, \"categoryLines\": false, \"valueAxis\": null}, \"times\": [], \"legendPosition\": \"right\", \"categoryAxes\": [{\"labels\": {\"rotate\": 75, \"truncate\": 100, \"show\": true}, \"id\": \"CategoryAxis-1\", \"show\": true, \"style\": {}, \"type\": \"category\", \"scale\": {\"type\": \"linear\"}, \"title\": {\"text\": \"Event Type\"}, \"position\": \"bottom\"}], \"orderBucketsBySum\": false}, \"aggs\": [{\"enabled\": true, \"schema\": \"metric\", \"id\": \"1\", \"params\": {}, \"type\": \"count\"}, {\"enabled\": true, \"schema\": \"segment\", \"id\": \"2\", \"params\": {\"size\": 20, \"order\": \"desc\", \"field\": \"cef.device.event_class_id\", \"customLabel\": \"Event Type\", \"orderBy\": \"1\"}, \"type\": \"terms\"}, {\"enabled\": true, \"schema\": \"metric\", \"id\": \"3\", \"params\": {\"field\": \"source.bytes\", \"customLabel\": \"Total (Bytes)\"}, \"type\": \"sum\"}]}"
            },
            "id": "fcf798a8-db8f-4492-827b-8fa7581108a9",
            "migrationVersion": {
                "visualization": "7.3.1"
            },
            "references": [
                {
                    "id": "f85a3444-8a43-4e46-b872-4e44bc25d0f3",
                    "name": "search_0",
                    "type": "search"
                }
            ],
            "type": "visualization",
            "updated_at": "2019-10-25T16:30:04.348Z",
            "version": "WzEyOTcsMV0="
        },
        {
            "attributes": {
                "description": "",
                "kibanaSavedObjectMeta": {
                    "searchSourceJSON": "{\"filter\": [], \"query\": {\"query_string\": {\"query\": \"*\"}}}"
                },
                "title": "Events Types by Severity [Filebeat CEF]",
                "uiStateJSON": "{}",
                "version": 1,
                "visState": "{\"type\": \"metrics\", \"listeners\": {}, \"title\": \"Events Types by Severity [Filebeat CEF]\", \"params\": {\"filter\": {\"query\": \"cef.device.product:\\\"DNS Trace Log\\\"\", \"language\": \"lucene\"}, \"series\": [{\"id\": \"81da76ca-1112-4d91-82f4-c66cd3156a84\", \"fill\": \"0\", \"line_width\": \"3\", \"point_size\": \"0\", \"color\": \"#68BC00\", \"axis_position\": \"right\", \"formatter\": \"number\", \"label\": \"Cumulative Bytes\", \"chart_type\": \"line\", \"split_mode\": \"filters\", \"stacked\": \"none\", \"seperate_axis\": 1, \"split_filters\": [{\"filter\": \"(event.severity:\\\"2\\\" OR event.severity:\\\"3\\\" OR event.severity:\\\"5\\\" OR event.severity:\\\"16\\\" OR cef.extension.deviceCustomString4:\\\"SERVFAIL\\\" OR cef.extension.deviceCustomString4:\\\"NXDOMAIN\\\" OR cef.extension.deviceCustomString4:\\\"REFUSED\\\" OR cef.extension.deviceCustomString4:\\\"BADVERS\\\" OR cef.extension.deviceCustomString4:\\\"BADSIG\\\")\", \"label\": \"HIGH\", \"id\": \"3f31a7e4-acf3-4f2d-8b7d-e30522325b2a\", \"color\": \"rgba(244,78,59,1)\"}, {\"filter\": \"(event.severity:\\\"1\\\" OR  event.severity:\\\"4\\\" OR  event.severity:\\\"6\\\" OR  event.severity:\\\"7\\\" OR  event.severity:\\\"8\\\" OR  event.severity:\\\"9\\\" OR  event.severity:\\\"10\\\" OR event.severity:\\\"17\\\" OR  event.severity:\\\"18\\\" OR  event.severity:\\\"19\\\" OR  event.severity:\\\"20\\\" OR  event.severity:\\\"21\\\" OR  event.severity:\\\"22\\\" OR   cef.extension.deviceCustomString4:\\\"Error\\\" OR  cef.extension.deviceCustomString4:\\\"ERROR\\\" OR  cef.extension.deviceCustomString4:\\\"Warning\\\" OR  cef.extension.deviceCustomString4:\\\"WARNING\\\" OR  cef.extension.deviceCustomString4:\\\"FORMERR\\\" OR  cef.extension.deviceCustomString4:\\\"NOTIMP\\\" OR  cef.extension.deviceCustomString4:\\\"YXDOMAIN\\\" OR  cef.extension.deviceCustomString4:\\\"YXRRSET\\\" OR  cef.extension.deviceCustomString4:\\\"NXRRSET\\\" OR  cef.extension.deviceCustomString4:\\\"NOTAUTH\\\" OR  cef.extension.deviceCustomString4:\\\"NOTZONE\\\" OR  cef.extension.deviceCustomString4:\\\"BADKEY\\\" OR  cef.extension.deviceCustomString4:\\\"BADTIME\\\" OR  cef.extension.deviceCustomString4:\\\"BADMODE\\\" OR  cef.extension.deviceCustomString4:\\\"BADNAME\\\" OR  cef.extension.deviceCustomString4:\\\"BADALG\\\" OR  cef.extension.deviceCustomString4:\\\"BADTRUNC\\\")\", \"label\": \"MEDIUM\", \"id\": \"7949d31b-8aae-433a-b7cf-6939a8728cc9\", \"color\": \"rgba(254,146,0,1)\"}, {\"filter\": \"(NOT (event.severity:\\\"2\\\" OR event.severity:\\\"3\\\" OR event.severity:\\\"5\\\" OR event.severity:\\\"16\\\" OR cef.extension.deviceCustomString4:\\\"SERVFAIL\\\" OR cef.extension.deviceCustomString4:\\\"NXDOMAIN\\\" OR cef.extension.deviceCustomString4:\\\"REFUSED\\\" OR cef.extension.deviceCustomString4:\\\"BADVERS\\\" OR cef.extension.deviceCustomString4:\\\"BADSIG\\\" OR event.severity:\\\"1\\\" OR  event.severity:\\\"4\\\" OR  event.severity:\\\"6\\\" OR  event.severity:\\\"7\\\" OR  event.severity:\\\"8\\\" OR  event.severity:\\\"9\\\" OR  event.severity:\\\"10\\\" OR event.severity:\\\"17\\\" OR  event.severity:\\\"18\\\" OR  event.severity:\\\"19\\\" OR  event.severity:\\\"20\\\" OR  event.severity:\\\"21\\\" OR  event.severity:\\\"22\\\" OR cef.extension.deviceCustomString4:\\\"Error\\\" OR  cef.extension.deviceCustomString4:\\\"ERROR\\\" OR  cef.extension.deviceCustomString4:\\\"Warning\\\" OR  cef.extension.deviceCustomString4:\\\"WARNING\\\" OR  cef.extension.deviceCustomString4:\\\"FORMERR\\\" OR  cef.extension.deviceCustomString4:\\\"NOTIMP\\\" OR  cef.extension.deviceCustomString4:\\\"YXDOMAIN\\\" OR  cef.extension.deviceCustomString4:\\\"YXRRSET\\\" OR  cef.extension.deviceCustomString4:\\\"NXRRSET\\\" OR  cef.extension.deviceCustomString4:\\\"NOTAUTH\\\" OR  cef.extension.deviceCustomString4:\\\"NOTZONE\\\" OR  cef.extension.deviceCustomString4:\\\"BADKEY\\\" OR  cef.extension.deviceCustomString4:\\\"BADTIME\\\" OR  cef.extension.deviceCustomString4:\\\"BADMODE\\\" OR  cef.extension.deviceCustomString4:\\\"BADNAME\\\" OR  cef.extension.deviceCustomString4:\\\"BADALG\\\" OR  cef.extension.deviceCustomString4:\\\"BADTRUNC\\\"))\", \"label\": \"LOW\", \"id\": \"d2627211-5f9e-4c65-8a47-1cd6f085939d\", \"color\": \"rgba(252,220,0,1)\"}], \"metrics\": [{\"type\": \"count\", \"field\": \"source.bytes\", \"id\": \"521d560c-321a-4410-9eb3-2b2bf3f4efee\"}]}, {\"id\": \"a5fda184-fdd6-4221-ab59-492eab162f0a\", \"fill\": 0.5, \"line_width\": 1, \"point_size\": 1, \"color\": \"rgba(0,156,224,1)\", \"axis_position\": \"right\", \"terms_size\": \"20\", \"formatter\": \"number\", \"label\": \"Count by Event Type\", \"chart_type\": \"bar\", \"terms_field\": \"cef.device.event_class_id\", \"split_mode\": \"terms\", \"stacked\": \"none\", \"seperate_axis\": 0, \"metrics\": [{\"type\": \"count\", \"id\": \"e147ba1c-b13a-496f-9841-b99ddee81c5a\"}]}], \"axis_formatter\": \"number\", \"type\": \"timeseries\", \"show_legend\": 1, \"time_field\": \"@timestamp\", \"axis_position\": \"left\", \"interval\": \"auto\", \"index_pattern\": \"filebeat-*\", \"id\": \"db54ebce-9dd2-4a1e-b476-b3ddb9a9024e\"}, \"aggs\": []}"
            },
            "id": "f0e60404-ddf4-4b46-8e45-e28c4fb6d60d",
            "migrationVersion": {
                "visualization": "7.3.1"
            },
            "references": [],
            "type": "visualization",
            "updated_at": "2019-10-25T16:30:04.348Z",
            "version": "WzEyOTgsMV0="
        },
        {
            "attributes": {
                "description": "",
                "kibanaSavedObjectMeta": {
                    "searchSourceJSON": "{\"filter\": []}"
                },
                "savedSearchRefName": "search_0",
                "title": "Top 10 Destinations by Size [Filebeat CEF]",
                "uiStateJSON": "{\"vis\": {\"params\": {\"sort\": {\"direction\": null, \"columnIndex\": null}}}}",
                "version": 1,
                "visState": "{\"type\": \"table\", \"listeners\": {}, \"title\": \"Top 10 Destinations by Size [Filebeat CEF]\", \"params\": {\"sort\": {\"direction\": null, \"columnIndex\": null}, \"perPage\": 10, \"showPartialRows\": false, \"showMeticsAtAllLevels\": false, \"showTotal\": false, \"totalFunc\": \"sum\"}, \"aggs\": [{\"enabled\": true, \"schema\": \"bucket\", \"id\": \"2\", \"params\": {\"size\": 10, \"order\": \"desc\", \"field\": \"destination.domain\", \"customLabel\": \"Destinations\", \"orderBy\": \"1\"}, \"type\": \"terms\"}, {\"enabled\": true, \"schema\": \"metric\", \"id\": \"3\", \"params\": {\"field\": \"source.bytes\", \"customLabel\": \"Bytes\"}, \"type\": \"sum\"}, {\"enabled\": true, \"schema\": \"metric\", \"id\": \"4\", \"params\": {\"field\": \"source.ip\", \"customLabel\": \"Sources\"}, \"type\": \"cardinality\"}, {\"enabled\": true, \"schema\": \"metric\", \"id\": \"1\", \"params\": {\"customLabel\": \"Count\"}, \"type\": \"count\"}]}"
            },
            "id": "1b9cc5b7-7747-49de-96b1-a4bc7f675716",
            "migrationVersion": {
                "visualization": "7.3.1"
            },
            "references": [
                {
                    "id": "f85a3444-8a43-4e46-b872-4e44bc25d0f3",
                    "name": "search_0",
                    "type": "search"
                }
            ],
            "type": "visualization",
            "updated_at": "2019-10-25T16:30:04.348Z",
            "version": "WzEyOTksMV0="
        },
        {
            "attributes": {
                "description": "",
                "kibanaSavedObjectMeta": {
                    "searchSourceJSON": "{\"filter\": [], \"query\": {\"query_string\": {\"query\": \"*\"}}}"
                },
                "title": " Dashboard Navigation [Filebeat CEF]",
                "uiStateJSON": "{}",
                "version": 1,
                "visState": "{\"type\": \"markdown\", \"listeners\": {}, \"title\": \" Dashboard Navigation [Filebeat CEF]\", \"params\": {\"markdown\": \"[Network Overview](#/dashboard/dd0bc9af-2e89-4150-9b42-62517ea56b71) | [Network Suspicious Activity](#/dashboard/db1e1aca-279e-4ecc-b84e-fe58644f7619) | [Endpoint Overview](#dashboard/c10ce1cf-f6b8-4de4-8715-2cb5f6770b3b) | [Endpoint OS Activity](#/dashboard/9e352900-89c3-4c1b-863e-249e24d0dac9) | [Microsoft DNS Overview](#/dashboard/56428e01-0c47-4770-8ba4-9345a029ea41)\"}, \"aggs\": []}"
            },
            "id": "677891a1-90c4-4273-b126-f0e54689bd76",
            "migrationVersion": {
                "visualization": "7.3.1"
            },
            "references": [],
            "type": "visualization",
            "updated_at": "2019-10-25T16:30:06.345Z",
            "version": "WzEzMzYsMV0="
        },
        {
            "attributes": {
                "description": "",
                "kibanaSavedObjectMeta": {
                    "searchSourceJSON": "{\"filter\": []}"
                },
                "savedSearchRefName": "search_0",
                "title": "Top 10 Sources by Size [Filebeat CEF]",
                "uiStateJSON": "{\"P-2\": {\"mapCenter\": [-0.17578097424708533, 0], \"mapZoom\": 0}, \"P-3\": {\"vis\": {\"defaultColors\": {\"0 - 100\": \"rgb(0,104,55)\"}}}, \"P-11\": {\"vis\": {\"params\": {\"sort\": {\"direction\": null, \"columnIndex\": null}}}}, \"vis\": {\"params\": {\"sort\": {\"direction\": null, \"columnIndex\": null}}}, \"P-13\": {\"vis\": {\"params\": {\"sort\": {\"direction\": null, \"columnIndex\": null}}}}, \"P-4\": {\"mapCenter\": [-0.17578097424708533, 0], \"mapZoom\": 0}, \"P-5\": {\"vis\": {\"legendOpen\": false, \"defaultColors\": {\"144,000 - 162,000\": \"rgb(23,100,171)\", \"90,000 - 108,000\": \"rgb(107,174,214)\", \"108,000 - 126,000\": \"rgb(74,152,201)\", \"18,000 - 36,000\": \"rgb(227,238,249)\", \"162,000 - 180,000\": \"rgb(8,74,145)\", \"126,000 - 144,000\": \"rgb(46,126,188)\", \"0 - 18,000\": \"rgb(247,251,255)\", \"54,000 - 72,000\": \"rgb(182,212,233)\", \"36,000 - 54,000\": \"rgb(208,225,242)\", \"72,000 - 90,000\": \"rgb(148,196,223)\"}}}}",
                "version": 1,
                "visState": "{\"type\": \"table\", \"listeners\": {}, \"title\": \"Top 10 Sources by Size [Filebeat CEF]\", \"params\": {\"sort\": {\"direction\": null, \"columnIndex\": null}, \"perPage\": 10, \"showPartialRows\": false, \"showMeticsAtAllLevels\": false, \"showTotal\": false, \"totalFunc\": \"sum\"}, \"aggs\": [{\"enabled\": true, \"schema\": \"bucket\", \"id\": \"2\", \"params\": {\"size\": 10, \"order\": \"desc\", \"field\": \"source.domain\", \"customLabel\": \"Sources\", \"orderBy\": \"1\"}, \"type\": \"terms\"}, {\"enabled\": true, \"schema\": \"metric\", \"id\": \"3\", \"params\": {\"field\": \"source.bytes\", \"customLabel\": \"Bytes\"}, \"type\": \"sum\"}, {\"enabled\": true, \"schema\": \"metric\", \"id\": \"4\", \"params\": {\"field\": \"destination.domain\", \"customLabel\": \"Destinations\"}, \"type\": \"cardinality\"}, {\"enabled\": true, \"schema\": \"metric\", \"id\": \"1\", \"params\": {\"customLabel\": \"Count\"}, \"type\": \"count\"}]}"
            },
            "id": "26a65f68-d7a6-4b47-befc-c5a6819bb91b",
            "migrationVersion": {
                "visualization": "7.3.1"
            },
            "references": [
                {
                    "id": "f85a3444-8a43-4e46-b872-4e44bc25d0f3",
                    "name": "search_0",
                    "type": "search"
                }
            ],
            "type": "visualization",
            "updated_at": "2019-10-25T16:30:04.348Z",
            "version": "WzEzMDEsMV0="
        },
        {
            "attributes": {
                "description": "",
                "kibanaSavedObjectMeta": {
                    "searchSourceJSON": "{\"filter\": [], \"query\": {\"query_string\": {\"query\": \"*\"}}}"
                },
                "title": "Events by Direction [Filebeat CEF]",
                "uiStateJSON": "{}",
                "version": 1,
                "visState": "{\"type\": \"metrics\", \"listeners\": {}, \"title\": \"Events by Direction [Filebeat CEF]\", \"params\": {\"filter\": {\"query\": \"cef.device.product:\\\"DNS Trace Log\\\"\", \"language\": \"lucene\"}, \"series\": [{\"filter\": {\"query\": \"device\", \"language\": \"lucene\"}, \"id\": \"9aae7344-9de9-4378-b21d-296cb964f93b\", \"fill\": \"0.2\", \"line_width\": 1, \"point_size\": 1, \"color\": \"#68BC00\", \"axis_position\": \"right\", \"formatter\": \"number\", \"label\": \"Inbound Requests\", \"chart_type\": \"bar\", \"split_mode\": \"filters\", \"stacked\": \"none\", \"seperate_axis\": 0, \"split_filters\": [{\"filter\": {\"query\": \"deviceDirection:\\\"0\\\"\", \"language\": \"lucene\"}, \"label\": \"Inbound Requests\", \"id\": \"f860f6e0-fbd4-4949-8046-6300322dfe84\", \"color\": \"rgba(0,156,224,1)\"}], \"metrics\": [{\"type\": \"count\", \"id\": \"1cd0b964-45cf-408e-a7e4-e26955f8a3b0\"}]}, {\"id\": \"ed1abe18-e01b-4202-9db4-06fda10692e0\", \"fill\": \"0.2\", \"line_width\": 1, \"point_size\": 1, \"color\": \"#68BC00\", \"axis_position\": \"right\", \"formatter\": \"number\", \"label\": \"Outbound Requests\", \"chart_type\": \"bar\", \"split_mode\": \"filters\", \"stacked\": \"none\", \"seperate_axis\": 0, \"split_filters\": [{\"filter\": \"deviceDirection:\\\"1\\\"\", \"label\": \"Outbound Requests\", \"id\": \"a9c50e1b-8f11-4bc2-9077-bb8870ed0b62\", \"color\": \"rgba(211,49,21,1)\"}], \"metrics\": [{\"type\": \"count\", \"id\": \"cfbcfc79-394b-4ec0-a2c2-7a47177d6469\"}, {\"type\": \"calculation\", \"variables\": [{\"field\": \"cfbcfc79-394b-4ec0-a2c2-7a47177d6469\", \"id\": \"f73f4f22-03d5-446a-b031-04eee531e3cc\", \"name\": \"outbound\"}], \"id\": \"6bc37118-ddac-41ec-85b3-9db7e1b3636b\", \"script\": \"params.outbound > 0 ? params.outbound * -1 : 0\"}]}], \"axis_formatter\": \"number\", \"type\": \"timeseries\", \"show_legend\": 1, \"time_field\": \"@timestamp\", \"axis_position\": \"left\", \"interval\": \"auto\", \"index_pattern\": \"filebeat-*\", \"id\": \"be556a57-cd1c-496c-8714-0bd210947c85\"}, \"aggs\": []}"
            },
            "id": "16aef3e9-e33b-4bab-b32f-d8c5b1263ac0",
            "migrationVersion": {
                "visualization": "7.3.1"
            },
            "references": [],
            "type": "visualization",
            "updated_at": "2019-10-25T16:30:04.348Z",
            "version": "WzEzMDIsMV0="
        },
        {
            "attributes": {
                "description": "",
                "kibanaSavedObjectMeta": {
                    "searchSourceJSON": "{\"filter\": [], \"query\": {\"query_string\": {\"query\": \"*\"}}}"
                },
                "title": "Events by Size [Filebeat CEF]",
                "uiStateJSON": "{}",
                "version": 1,
                "visState": "{\"type\": \"metrics\", \"listeners\": {}, \"title\": \"Events by Size [Filebeat CEF]\", \"params\": {\"filter\": {\"query\": \"cef.device.product:\\\"DNS Trace Log\\\"\", \"language\": \"lucene\"}, \"series\": [{\"filter\": {\"query\": \"deviceDirection:\\\"0\\\"\", \"language\": \"lucene\"}, \"id\": \"28b1fb5b-0f16-4519-b901-4dd2dcc39915\", \"fill\": 0.5, \"line_width\": \"2\", \"point_size\": 1, \"color\": \"rgba(0,156,224,1)\", \"axis_position\": \"right\", \"formatter\": \"bytes\", \"label\": \"Inbound Bytes\", \"chart_type\": \"line\", \"split_mode\": \"filter\", \"stacked\": \"none\", \"seperate_axis\": 0, \"metrics\": [{\"type\": \"sum\", \"field\": \"source.bytes\", \"id\": \"f613f33f-6459-4e46-a3a0-c36c48c46b2e\"}]}, {\"filter\": {\"query\": \"deviceDirection:\\\"1\\\"\", \"language\": \"lucene\"}, \"id\": \"5a5c2529-4990-4006-b039-c94069ff6b7e\", \"fill\": 0.5, \"line_width\": \"2\", \"point_size\": 1, \"color\": \"rgba(244,78,59,1)\", \"axis_position\": \"right\", \"formatter\": \"bytes\", \"label\": \"Outbound Bytes\", \"chart_type\": \"line\", \"split_mode\": \"filter\", \"stacked\": \"none\", \"seperate_axis\": 0, \"metrics\": [{\"type\": \"sum\", \"field\": \"source.bytes\", \"id\": \"b69501e7-56d5-4c38-81d1-34d778c81e11\"}, {\"type\": \"calculation\", \"variables\": [{\"field\": \"b69501e7-56d5-4c38-81d1-34d778c81e11\", \"id\": \"23b8c41c-0e98-4ace-8bca-3593e46cd955\", \"name\": \"outbound_bytes\"}], \"id\": \"0aaab374-5845-44ab-94f5-ac4fab25c287\", \"script\": \"params.outbound_bytes >= 0 ? params.outbound_bytes * -1 : 0\"}]}], \"axis_formatter\": \"number\", \"type\": \"timeseries\", \"show_legend\": 1, \"time_field\": \"@timestamp\", \"axis_position\": \"left\", \"interval\": \"auto\", \"index_pattern\": \"filebeat-*\", \"id\": \"6e634117-6b30-411c-b74c-75510befe42f\"}, \"aggs\": []}"
            },
            "id": "f3c573ad-2c16-4de5-9ec3-0a47141d4fa0",
            "migrationVersion": {
                "visualization": "7.3.1"
            },
            "references": [],
            "type": "visualization",
            "updated_at": "2019-10-25T16:30:04.348Z",
            "version": "WzEzMDMsMV0="
        },
        {
            "attributes": {
                "description": "",
                "kibanaSavedObjectMeta": {
                    "searchSourceJSON": "{\"filter\": []}"
                },
                "savedSearchRefName": "search_0",
                "title": "Top Destinations by Events [Filebeat CEF]",
                "uiStateJSON": "{}",
                "version": 1,
                "visState": "{\"type\": \"tile_map\", \"listeners\": {}, \"title\": \"Top Destinations by Events [Filebeat CEF]\", \"params\": {\"heatBlur\": 15, \"legendPosition\": \"bottomright\", \"addTooltip\": true, \"heatMinOpacity\": 0.1, \"wms\": {\"enabled\": false, \"options\": {\"styles\": \"\", \"version\": \"1.3.0\", \"layers\": \"0\", \"attribution\": \"Maps provided by USGS\", \"transparent\": true, \"format\": \"image/png\"}, \"url\": \"https://basemap.nationalmap.gov/arcgis/services/USGSTopo/MapServer/WMSServer\"}, \"mapZoom\": 2, \"mapType\": \"Shaded Circle Markers\", \"isDesaturated\": true, \"heatRadius\": 25, \"mapCenter\": [0, 0], \"heatMaxZoom\": 0}, \"aggs\": [{\"enabled\": true, \"schema\": \"metric\", \"id\": \"1\", \"params\": {}, \"type\": \"count\"}, {\"enabled\": true, \"schema\": \"segment\", \"id\": \"2\", \"params\": {\"autoPrecision\": true, \"precision\": 2, \"field\": \"destination.geo.location\", \"useGeocentroid\": true}, \"type\": \"geohash_grid\"}]}"
            },
            "id": "1b521f56-8089-433f-88f7-56aba867e07d",
            "migrationVersion": {
                "visualization": "7.3.1"
            },
            "references": [
                {
                    "id": "f85a3444-8a43-4e46-b872-4e44bc25d0f3",
                    "name": "search_0",
                    "type": "search"
                }
            ],
            "type": "visualization",
            "updated_at": "2019-10-25T16:30:04.348Z",
            "version": "WzEzMDQsMV0="
        },
        {
            "attributes": {
                "description": "",
                "kibanaSavedObjectMeta": {
                    "searchSourceJSON": "{\"filter\": []}"
                },
                "savedSearchRefName": "search_0",
                "title": "Top Sources by Events [Filebeat CEF]",
                "uiStateJSON": "{}",
                "version": 1,
                "visState": "{\"type\": \"tile_map\", \"listeners\": {}, \"title\": \"Top Sources by Events [Filebeat CEF]\", \"params\": {\"heatBlur\": 15, \"legendPosition\": \"bottomright\", \"addTooltip\": true, \"heatMinOpacity\": 0.1, \"wms\": {\"enabled\": false, \"options\": {\"styles\": \"\", \"version\": \"1.3.0\", \"layers\": \"0\", \"attribution\": \"Maps provided by USGS\", \"transparent\": true, \"format\": \"image/png\"}, \"url\": \"https://basemap.nationalmap.gov/arcgis/services/USGSTopo/MapServer/WMSServer\"}, \"mapZoom\": 2, \"mapType\": \"Shaded Circle Markers\", \"isDesaturated\": true, \"heatRadius\": 25, \"mapCenter\": [0, 0], \"heatMaxZoom\": 0}, \"aggs\": [{\"enabled\": true, \"schema\": \"metric\", \"id\": \"1\", \"params\": {}, \"type\": \"count\"}, {\"enabled\": true, \"schema\": \"segment\", \"id\": \"2\", \"params\": {\"autoPrecision\": true, \"precision\": 2, \"field\": \"source.geo.location\", \"useGeocentroid\": true}, \"type\": \"geohash_grid\"}]}"
            },
            "id": "581a296e-e34a-48f1-93e4-fc4bdadfc68d",
            "migrationVersion": {
                "visualization": "7.3.1"
            },
            "references": [
                {
                    "id": "f85a3444-8a43-4e46-b872-4e44bc25d0f3",
                    "name": "search_0",
                    "type": "search"
                }
            ],
            "type": "visualization",
            "updated_at": "2019-10-25T16:30:04.348Z",
            "version": "WzEzMDUsMV0="
        },
        {
            "attributes": {
                "columns": [
                    "cef.device.vendor",
                    "cef.device.product",
                    "cef.extensions.categoryBehavior",
                    "cef.extensions.categoryOutcome",
                    "destination.ip",
                    "destination.port",
                    "destination.domain",
                    "cef.device.event_class_id",
                    "cef.extensions.deviceCustomString1Label",
                    "cef.extensions.deviceCustomString1",
                    "cef.extensions.deviceCustomString2Label",
                    "cef.extensions.deviceCustomString2",
                    "cef.extension.cef.extension.deviceCustomString3Label",
                    "cef.extension.deviceCustomString3",
                    "cef.extension.cef.extension.deviceCustomString4Label",
                    "cef.extension.deviceCustomString4",
                    "cef.extensions.deviceEventCategory",
                    "event.severity",
                    "source.ip",
                    "source.port",
                    "network.transport",
                    "source.bytes",
                    "url.original"
                ],
                "description": "",
                "hits": 0,
                "kibanaSavedObjectMeta": {
                    "searchSourceJSON": "{\"filter\": [], \"version\": true, \"highlightAll\": true, \"indexRefName\": \"kibanaSavedObjectMeta.searchSourceJSON.index\", \"query\": {\"query_string\": {\"analyze_wildcard\": true, \"query\": \"cef.device.product:\\\"DNS Trace Log\\\"\"}}}"
                },
                "sort": [
                    [
                        "@timestamp",
                        "desc"
                    ]
                ],
                "title": "Microsoft DNS Events [Filebeat CEF]",
                "version": 1
            },
            "id": "f85a3444-8a43-4e46-b872-4e44bc25d0f3",
            "migrationVersion": {
                "search": "7.4.0"
            },
            "references": [
                {
                    "id": "filebeat-*",
                    "name": "kibanaSavedObjectMeta.searchSourceJSON.index",
                    "type": "index-pattern"
                }
            ],
            "type": "search",
            "updated_at": "2019-10-25T16:30:04.348Z",
            "version": "WzEzMDYsMV0="
        }
    ],
    "version": "7.4.1"
}