{
    "objects": [
        {
            "attributes": {
                "description": "",
                "kibanaSavedObjectMeta": {
                    "searchSourceJSON": "{\"filter\": []}"
                },
                "savedSearchId": "ffaf5a30-2413-11e7-a0d9-39604d45ca7f-ecs",
                "title": "Mainlog Severity [Filebeat Icinga] ECS",
                "uiStateJSON": "{\"vis\": {\"colors\": {\"warning\": \"#E5AC0E\", \"critical\": \"#BF1B00\"}}}",
                "version": 1,
                "visState": "{\"type\": \"histogram\", \"listeners\": {}, \"title\": \"Icinga Mainlog Severity ECS\", \"params\": {\"defaultYExtents\": false, \"addTooltip\": true, \"addLegend\": true, \"addTimeMarker\": false, \"mode\": \"stacked\", \"scale\": \"linear\", \"times\": [], \"legendPosition\": \"right\", \"setYExtents\": false}, \"aggs\": [{\"enabled\": true, \"schema\": \"metric\", \"id\": \"1\", \"params\": {}, \"type\": \"count\"}, {\"enabled\": true, \"schema\": \"segment\", \"id\": \"2\", \"params\": {\"interval\": \"auto\", \"field\": \"@timestamp\", \"min_doc_count\": 1, \"customInterval\": \"2h\", \"extended_bounds\": {}}, \"type\": \"date_histogram\"}, {\"enabled\": true, \"schema\": \"group\", \"id\": \"3\", \"params\": {\"order\": \"desc\", \"field\": \"log.level\", \"size\": 5, \"orderBy\": \"1\"}, \"type\": \"terms\"}]}"
            },
            "id": "d8e5dc40-2417-11e7-a83b-d5f4cebac9ff-ecs",
            "type": "visualization",
            "version": 2
        },
        {
            "attributes": {
                "columns": [
                    "icinga.main.facility",
                    "log.level",
                    "message"
                ],
                "description": "",
                "hits": 0,
                "kibanaSavedObjectMeta": {
                    "searchSourceJSON": "{\"filter\": [{\"$state\": {\"store\": \"appState\"}, \"query\": {\"match\": {\"event.module\": {\"query\": \"icinga\", \"type\": \"phrase\"}}}, \"meta\": {\"alias\": null, \"negate\": false, \"type\": \"phrase\", \"disabled\": false, \"key\": \"event.module\", \"value\": \"icinga\", \"params\": {\"query\": \"icinga\", \"type\": \"phrase\"}, \"index\": \"filebeat-*\"}}, {\"$state\": {\"store\": \"appState\"}, \"query\": {\"match\": {\"fileset.name\": {\"query\": \"main\", \"type\": \"phrase\"}}}, \"meta\": {\"alias\": null, \"negate\": false, \"type\": \"phrase\", \"disabled\": false, \"key\": \"fileset.name\", \"value\": \"main\", \"params\": {\"query\": \"main\", \"type\": \"phrase\"}, \"index\": \"filebeat-*\"}}], \"version\": true, \"highlightAll\": true, \"query\": {\"query\": \"\", \"language\": \"kuery\"}, \"index\": \"filebeat-*\"}"
                },
                "sort": [
                    "@timestamp",
                    "desc"
                ],
                "title": "Main Log [Filebeat Icinga] ECS",
                "version": 1
            },
            "id": "ffaf5a30-2413-11e7-a0d9-39604d45ca7f-ecs",
            "type": "search",
            "version": 2
        },
        {
            "attributes": {
                "description": "",
                "kibanaSavedObjectMeta": {
                    "searchSourceJSON": "{\"filter\": []}"
                },
                "savedSearchId": "ffaf5a30-2413-11e7-a0d9-39604d45ca7f-ecs",
                "title": "Mainlog Facility [Filebeat Icinga] ECS",
                "uiStateJSON": "{}",
                "version": 1,
                "visState": "{\"type\": \"histogram\", \"listeners\": {}, \"title\": \"Icinga Mainlog Facility ECS\", \"params\": {\"defaultYExtents\": false, \"addTooltip\": true, \"addLegend\": true, \"addTimeMarker\": false, \"mode\": \"stacked\", \"scale\": \"linear\", \"times\": [], \"legendPosition\": \"right\", \"setYExtents\": false}, \"aggs\": [{\"enabled\": true, \"schema\": \"metric\", \"id\": \"1\", \"params\": {}, \"type\": \"count\"}, {\"enabled\": true, \"schema\": \"segment\", \"id\": \"2\", \"params\": {\"interval\": \"auto\", \"field\": \"@timestamp\", \"min_doc_count\": 1, \"customInterval\": \"2h\", \"extended_bounds\": {}}, \"type\": \"date_histogram\"}, {\"enabled\": true, \"schema\": \"group\", \"id\": \"3\", \"params\": {\"order\": \"desc\", \"field\": \"icinga.main.facility\", \"size\": 5, \"orderBy\": \"1\"}, \"type\": \"terms\"}]}"
            },
            "id": "2cf77780-2418-11e7-a83b-d5f4cebac9ff-ecs",
            "type": "visualization",
            "version": 2
        },
        {
            "attributes": {
                "description": "Filebeat Icinga module dashboard for the main log files",
                "hits": 0,
                "kibanaSavedObjectMeta": {
                    "searchSourceJSON": "{\"filter\": [], \"version\": true, \"highlightAll\": true, \"query\": {\"query\": \"\", \"language\": \"kuery\"}}"
                },
                "optionsJSON": "{\"darkTheme\": false}",
                "panelsJSON": "[{\"id\": \"d8e5dc40-2417-11e7-a83b-d5f4cebac9ff-ecs\", \"col\": 7, \"type\": \"visualization\", \"size_x\": 6, \"row\": 1, \"panelIndex\": 1, \"size_y\": 3}, {\"sort\": [\"@timestamp\", \"desc\"], \"id\": \"ffaf5a30-2413-11e7-a0d9-39604d45ca7f-ecs\", \"col\": 1, \"type\": \"search\", \"size_x\": 12, \"row\": 4, \"columns\": [\"icinga.main.facility\", \"log.level\", \"message\"], \"panelIndex\": 2, \"size_y\": 25}, {\"id\": \"2cf77780-2418-11e7-a83b-d5f4cebac9ff-ecs\", \"col\": 1, \"type\": \"visualization\", \"size_x\": 6, \"row\": 1, \"panelIndex\": 3, \"size_y\": 3}]",
                "timeRestore": false,
                "title": "[Filebeat Icinga] Main Log ECS",
                "uiStateJSON": "{}",
                "version": 1
            },
            "id": "f693d260-2417-11e7-a83b-d5f4cebac9ff-ecs",
            "type": "dashboard",
            "version": 4
        }
    ],
    "version": "6.0.0-beta1-SNAPSHOT"
}