{
    "objects": [
        {
            "attributes": {
                "description": "",
                "kibanaSavedObjectMeta": {
                    "searchSourceJSON": "{\"filter\": [], \"query\": {\"query\": \"\", \"language\": \"kuery\"}}"
                },
                "savedSearchId": "b3f1b010-1f26-11e9-8ec4-cf5d91a864b3-ecs",
                "title": "Events Timeline [Filebeat Iptables] ECS",
                "uiStateJSON": "{}",
                "version": 1,
                "visState": "{\"type\": \"area\", \"title\": \"Events Timeline [Filebeat Iptables] ECS\", \"params\": {\"addTooltip\": true, \"addLegend\": true, \"addTimeMarker\": false, \"type\": \"area\", \"seriesParams\": [{\"data\": {\"id\": \"1\", \"label\": \"Count\"}, \"drawLinesBetweenPoints\": true, \"type\": \"area\", \"valueAxis\": \"ValueAxis-1\", \"show\": \"true\", \"showCircles\": true, \"mode\": \"stacked\", \"interpolate\": \"linear\"}], \"grid\": {\"style\": {\"color\": \"#eee\"}, \"categoryLines\": false}, \"times\": [], \"legendPosition\": \"right\", \"categoryAxes\": [{\"labels\": {\"truncate\": 100, \"show\": true}, \"id\": \"CategoryAxis-1\", \"show\": true, \"style\": {}, \"type\": \"category\", \"scale\": {\"type\": \"linear\"}, \"title\": {}, \"position\": \"bottom\"}], \"valueAxes\": [{\"labels\": {\"filter\": false, \"rotate\": 0, \"truncate\": 100, \"show\": true}, \"id\": \"ValueAxis-1\", \"name\": \"LeftAxis-1\", \"show\": true, \"style\": {}, \"type\": \"value\", \"scale\": {\"type\": \"linear\", \"mode\": \"normal\"}, \"title\": {\"text\": \"Count\"}, \"position\": \"left\"}]}, \"aggs\": [{\"enabled\": true, \"schema\": \"metric\", \"id\": \"1\", \"params\": {}, \"type\": \"count\"}, {\"enabled\": true, \"schema\": \"segment\", \"id\": \"2\", \"params\": {\"drop_partials\": false, \"time_zone\": \"Europe/Berlin\", \"interval\": \"auto\", \"field\": \"@timestamp\", \"min_doc_count\": 1, \"useNormalizedEsInterval\": true, \"customInterval\": \"2h\", \"extended_bounds\": {}}, \"type\": \"date_histogram\"}]}"
            },
            "id": "4c913eb0-1f51-11e9-93ed-f7e068f4aebb-ecs",
            "type": "visualization",
            "updated_at": "2019-01-23T20:56:04.891Z",
            "version": 1
        },
        {
            "attributes": {
                "description": "",
                "kibanaSavedObjectMeta": {
                    "searchSourceJSON": "{\"filter\": [], \"query\": {\"query\": \"iptables.length:*\", \"language\": \"kuery\"}}"
                },
                "savedSearchId": "b3f1b010-1f26-11e9-8ec4-cf5d91a864b3-ecs",
                "title": "Top Source Countries [Filebeat Iptables] ECS",
                "uiStateJSON": "{\"vis\": {\"params\": {\"sort\": {\"direction\": null, \"columnIndex\": null}}}}",
                "version": 1,
                "visState": "{\"type\": \"table\", \"title\": \"Top Source Countries [Filebeat Iptables] ECS\", \"params\": {\"sort\": {\"direction\": null, \"columnIndex\": null}, \"perPage\": 10, \"showPartialRows\": false, \"showMetricsAtAllLevels\": false, \"showTotal\": false, \"totalFunc\": \"sum\"}, \"aggs\": [{\"enabled\": true, \"schema\": \"metric\", \"id\": \"1\", \"params\": {}, \"type\": \"count\"}, {\"enabled\": true, \"schema\": \"bucket\", \"id\": \"2\", \"params\": {\"order\": \"desc\", \"orderBy\": \"1\", \"customLabel\": \"Country\", \"otherBucket\": false, \"missingBucket\": false, \"otherBucketLabel\": \"Other\", \"field\": \"source.geo.country_iso_code\", \"size\": 5, \"missingBucketLabel\": \"Missing\"}, \"type\": \"terms\"}]}"
            },
            "id": "2599f5e0-1e98-11e9-8ec4-cf5d91a864b3-ecs",
            "type": "visualization",
            "updated_at": "2019-01-23T20:51:02.293Z",
            "version": 1
        },
        {
            "attributes": {
                "description": "",
                "kibanaSavedObjectMeta": {
                    "searchSourceJSON": "{\"filter\": [], \"query\": {\"query\": \"iptables.length:*\", \"language\": \"kuery\"}}"
                },
                "savedSearchId": "b3f1b010-1f26-11e9-8ec4-cf5d91a864b3-ecs",
                "title": "Source Map [Filebeat Iptables] ECS",
                "uiStateJSON": "{\"mapCenter\": [45.02695045318546, -44.82421875000001], \"mapZoom\": 3}",
                "version": 1,
                "visState": "{\"type\": \"tile_map\", \"title\": \"Source Map [Filebeat Iptables] ECS\", \"params\": {\"addTooltip\": true, \"wms\": {\"enabled\": false, \"options\": {\"transparent\": true, \"format\": \"image/png\"}, \"selectedTmsLayer\": {\"origin\": \"elastic_maps_service\", \"id\": \"road_map\", \"minZoom\": 0, \"maxZoom\": 18, \"attribution\": \"<p>&#169; <a href=\\\"http://www.openstreetmap.org/copyright\\\">OpenStreetMap</a> contributors | <a href=\\\"https://www.elastic.co/elastic-maps-service\\\">Elastic Maps Service</a></p>&#10;\"}}, \"mapZoom\": 2, \"heatClusterSize\": 1.5, \"mapType\": \"Scaled Circle Markers\", \"colorSchema\": \"Yellow to Red\", \"legendPosition\": \"bottomright\", \"mapCenter\": [0, 0], \"isDesaturated\": true}, \"aggs\": [{\"enabled\": true, \"schema\": \"metric\", \"id\": \"1\", \"params\": {}, \"type\": \"count\"}, {\"enabled\": true, \"schema\": \"segment\", \"id\": \"2\", \"params\": {\"autoPrecision\": true, \"isFilteredByCollar\": true, \"mapCenter\": [0, 0], \"useGeocentroid\": true, \"mapZoom\": 2, \"field\": \"source.geo.location\", \"precision\": 2}, \"type\": \"geohash_grid\"}]}"
            },
            "id": "c4394ec0-1efd-11e9-8ec4-cf5d91a864b3-ecs",
            "type": "visualization",
            "updated_at": "2019-01-23T20:51:02.293Z",
            "version": 1
        },
        {
            "attributes": {
                "description": "",
                "kibanaSavedObjectMeta": {
                    "searchSourceJSON": "{\"filter\": [], \"query\": {\"query\": \"iptables.length:*\", \"language\": \"kuery\"}}"
                },
                "savedSearchId": "b3f1b010-1f26-11e9-8ec4-cf5d91a864b3-ecs",
                "title": "Destination Map [Filebeat Iptables] ECS",
                "uiStateJSON": "{}",
                "version": 1,
                "visState": "{\"type\": \"tile_map\", \"title\": \"Destination Map [Filebeat Iptables] ECS\", \"params\": {\"addTooltip\": true, \"wms\": {\"enabled\": false, \"options\": {\"transparent\": true, \"format\": \"image/png\"}, \"selectedTmsLayer\": {\"origin\": \"elastic_maps_service\", \"id\": \"road_map\", \"minZoom\": 0, \"maxZoom\": 18, \"attribution\": \"<p>&#169; <a href=\\\"http://www.openstreetmap.org/copyright\\\">OpenStreetMap</a> contributors | <a href=\\\"https://www.elastic.co/elastic-maps-service\\\">Elastic Maps Service</a></p>&#10;\"}}, \"mapZoom\": 2, \"heatClusterSize\": 1.5, \"mapType\": \"Scaled Circle Markers\", \"colorSchema\": \"Yellow to Red\", \"legendPosition\": \"bottomright\", \"mapCenter\": [0, 0], \"isDesaturated\": true}, \"aggs\": [{\"enabled\": true, \"schema\": \"metric\", \"id\": \"1\", \"params\": {}, \"type\": \"count\"}, {\"enabled\": true, \"schema\": \"segment\", \"id\": \"2\", \"params\": {\"autoPrecision\": true, \"isFilteredByCollar\": true, \"mapCenter\": [0, 0], \"useGeocentroid\": true, \"mapZoom\": 2, \"field\": \"destination.geo.location\", \"precision\": 2}, \"type\": \"geohash_grid\"}]}"
            },
            "id": "d8cea010-1efd-11e9-8ec4-cf5d91a864b3-ecs",
            "type": "visualization",
            "updated_at": "2019-01-23T20:51:02.293Z",
            "version": 1
        },
        {
            "attributes": {
                "description": "",
                "kibanaSavedObjectMeta": {
                    "searchSourceJSON": "{\"filter\": [], \"query\": {\"query\": \"iptables.length:*\", \"language\": \"kuery\"}}"
                },
                "savedSearchId": "b3f1b010-1f26-11e9-8ec4-cf5d91a864b3-ecs",
                "title": "Network Type Breakdown [Filebeat Iptables] ECS",
                "uiStateJSON": "{\"vis\": {\"legendOpen\": false}}",
                "version": 1,
                "visState": "{\"type\": \"pie\", \"title\": \"Network Type Breakdown [Filebeat Iptables] ECS\", \"params\": {\"addTooltip\": true, \"labels\": {\"last_level\": true, \"values\": true, \"truncate\": 100, \"show\": true}, \"isDonut\": true, \"addLegend\": true, \"type\": \"pie\", \"legendPosition\": \"right\"}, \"aggs\": [{\"enabled\": true, \"schema\": \"metric\", \"id\": \"1\", \"params\": {}, \"type\": \"count\"}, {\"enabled\": true, \"schema\": \"segment\", \"id\": \"2\", \"params\": {\"order\": \"desc\", \"orderBy\": \"1\", \"otherBucket\": true, \"missingBucket\": true, \"otherBucketLabel\": \"Other\", \"field\": \"network.type\", \"size\": 5, \"missingBucketLabel\": \"Missing\"}, \"type\": \"terms\"}]}"
            },
            "id": "b57b7370-1f1d-11e9-8ec4-cf5d91a864b3-ecs",
            "type": "visualization",
            "updated_at": "2019-01-23T20:51:02.293Z",
            "version": 1
        },
        {
            "attributes": {
                "description": "",
                "kibanaSavedObjectMeta": {
                    "searchSourceJSON": "{\"filter\": [], \"query\": {\"query\": \"iptables.length:*\", \"language\": \"kuery\"}}"
                },
                "savedSearchId": "b3f1b010-1f26-11e9-8ec4-cf5d91a864b3-ecs",
                "title": "Network Transport Breakdown [Filebeat Iptables] ECS",
                "uiStateJSON": "{\"vis\": {\"legendOpen\": false}}",
                "version": 1,
                "visState": "{\"type\": \"pie\", \"title\": \"Network Transport Breakdown [Filebeat Iptables] ECS\", \"params\": {\"addTooltip\": true, \"labels\": {\"last_level\": true, \"values\": true, \"truncate\": 100, \"show\": true}, \"isDonut\": true, \"addLegend\": true, \"type\": \"pie\", \"legendPosition\": \"right\"}, \"aggs\": [{\"enabled\": true, \"schema\": \"metric\", \"id\": \"1\", \"params\": {}, \"type\": \"count\"}, {\"enabled\": true, \"schema\": \"segment\", \"id\": \"2\", \"params\": {\"order\": \"desc\", \"orderBy\": \"1\", \"otherBucket\": true, \"missingBucket\": true, \"otherBucketLabel\": \"Other\", \"field\": \"network.transport\", \"size\": 5, \"missingBucketLabel\": \"Missing\"}, \"type\": \"terms\"}]}"
            },
            "id": "35fe0910-1f26-11e9-8ec4-cf5d91a864b3-ecs",
            "type": "visualization",
            "updated_at": "2019-01-23T20:51:02.293Z",
            "version": 1
        },
        {
            "attributes": {
                "description": "",
                "kibanaSavedObjectMeta": {
                    "searchSourceJSON": "{\"filter\": [], \"query\": {\"query\": \"iptables.length:*\", \"language\": \"kuery\"}}"
                },
                "savedSearchId": "b3f1b010-1f26-11e9-8ec4-cf5d91a864b3-ecs",
                "title": "Top Destination Ports [Filebeat Iptables] ECS",
                "uiStateJSON": "{\"vis\": {\"params\": {\"sort\": {\"direction\": null, \"columnIndex\": null}}}}",
                "version": 1,
                "visState": "{\"type\": \"table\", \"title\": \"Top Destination Ports [Filebeat Iptables] ECS\", \"params\": {\"sort\": {\"direction\": null, \"columnIndex\": null}, \"perPage\": 10, \"showPartialRows\": false, \"showMetricsAtAllLevels\": false, \"showTotal\": false, \"totalFunc\": \"sum\"}, \"aggs\": [{\"enabled\": true, \"schema\": \"metric\", \"id\": \"1\", \"params\": {}, \"type\": \"count\"}, {\"enabled\": true, \"schema\": \"bucket\", \"id\": \"2\", \"params\": {\"order\": \"desc\", \"orderBy\": \"1\", \"customLabel\": \"Port\", \"otherBucket\": false, \"missingBucket\": false, \"otherBucketLabel\": \"Other\", \"field\": \"destination.port\", \"size\": 5, \"missingBucketLabel\": \"Missing\"}, \"type\": \"terms\"}]}"
            },
            "id": "683402b0-1f29-11e9-8ec4-cf5d91a864b3-ecs",
            "type": "visualization",
            "updated_at": "2019-01-23T20:51:02.293Z",
            "version": 1
        },
        {
            "attributes": {
                "columns": [
                    "_source"
                ],
                "description": "",
                "hits": 0,
                "kibanaSavedObjectMeta": {
                    "searchSourceJSON": "{\"filter\": [], \"version\": true, \"highlightAll\": true, \"query\": {\"query\": \"iptables.length :*\", \"language\": \"kuery\"}, \"index\": \"filebeat-*\"}"
                },
                "sort": [
                    "@timestamp",
                    "desc"
                ],
                "title": "Events Search [Filebeat Iptables] ECS",
                "version": 1
            },
            "id": "b3f1b010-1f26-11e9-8ec4-cf5d91a864b3-ecs",
            "type": "search",
            "updated_at": "2019-01-23T20:51:02.293Z",
            "version": 1
        },
        {
            "attributes": {
                "description": "Overview of the iptables events dashboard.",
                "hits": 0,
                "kibanaSavedObjectMeta": {
                    "searchSourceJSON": "{\"filter\": [], \"query\": {\"query\": \"\", \"language\": \"kuery\"}}"
                },
                "optionsJSON": "{\"hidePanelTitles\": false, \"darkTheme\": false, \"useMargins\": true}",
                "panelsJSON": "[{\"gridData\": {\"w\": 37, \"y\": 0, \"h\": 15, \"i\": \"1\", \"x\": 0}, \"version\": \"6.6.0\", \"id\": \"4c913eb0-1f51-11e9-93ed-f7e068f4aebb-ecs\", \"type\": \"visualization\", \"embeddableConfig\": {\"vis\": {\"legendOpen\": false}}, \"panelIndex\": \"1\"}, {\"gridData\": {\"w\": 11, \"y\": 0, \"h\": 15, \"i\": \"2\", \"x\": 37}, \"version\": \"6.6.0\", \"id\": \"2599f5e0-1e98-11e9-8ec4-cf5d91a864b3-ecs\", \"type\": \"visualization\", \"embeddableConfig\": {}, \"panelIndex\": \"2\"}, {\"gridData\": {\"w\": 24, \"y\": 15, \"h\": 15, \"i\": \"3\", \"x\": 0}, \"version\": \"6.6.0\", \"id\": \"c4394ec0-1efd-11e9-8ec4-cf5d91a864b3-ecs\", \"type\": \"visualization\", \"embeddableConfig\": {\"mapCenter\": [47.15984001304432, -47.02148437500001], \"mapZoom\": 2}, \"panelIndex\": \"3\"}, {\"gridData\": {\"w\": 24, \"y\": 15, \"h\": 15, \"i\": \"4\", \"x\": 24}, \"version\": \"6.6.0\", \"id\": \"d8cea010-1efd-11e9-8ec4-cf5d91a864b3-ecs\", \"type\": \"visualization\", \"embeddableConfig\": {\"mapCenter\": [49.15296965617042, -27.949218750000004], \"mapZoom\": 2}, \"panelIndex\": \"4\"}, {\"gridData\": {\"w\": 19, \"y\": 30, \"h\": 15, \"i\": \"5\", \"x\": 0}, \"version\": \"6.6.0\", \"id\": \"b57b7370-1f1d-11e9-8ec4-cf5d91a864b3-ecs\", \"type\": \"visualization\", \"embeddableConfig\": {}, \"panelIndex\": \"5\"}, {\"gridData\": {\"w\": 18, \"y\": 30, \"h\": 15, \"i\": \"6\", \"x\": 19}, \"version\": \"6.6.0\", \"id\": \"35fe0910-1f26-11e9-8ec4-cf5d91a864b3-ecs\", \"type\": \"visualization\", \"embeddableConfig\": {}, \"panelIndex\": \"6\"}, {\"gridData\": {\"w\": 11, \"y\": 30, \"h\": 15, \"i\": \"7\", \"x\": 37}, \"version\": \"6.6.0\", \"id\": \"683402b0-1f29-11e9-8ec4-cf5d91a864b3-ecs\", \"type\": \"visualization\", \"embeddableConfig\": {}, \"panelIndex\": \"7\"}, {\"gridData\": {\"w\": 48, \"y\": 45, \"h\": 19, \"i\": \"8\", \"x\": 0}, \"version\": \"6.6.0\", \"id\": \"b3f1b010-1f26-11e9-8ec4-cf5d91a864b3-ecs\", \"type\": \"search\", \"embeddableConfig\": {}, \"panelIndex\": \"8\"}]",
                "timeRestore": false,
                "title": "[Filebeat Iptables] Overview ECS",
                "version": 1
            },
            "id": "ceefb9e0-1f51-11e9-93ed-f7e068f4aebb-ecs",
            "type": "dashboard",
            "updated_at": "2019-01-23T20:59:43.614Z",
            "version": 1
        }
    ],
    "version": "6.6.0"
}